test/adpcm/accel_filtez_u3_upzero_base/rtl/rtl_batch.log
Reading ACCEL flags from /home/pelps/Comp_Arc/risc_v_asip/scripts/../test/adpcm/accel_filtez_u3_upzero_base/accel.conf
ACCEL flags: ACCEL_ADPCM_FILTEZ ACCEL_ADPCM_FILTEZ_U3 ACCEL_ADPCM_UPZERO
EXTRA_CFLAGS: -DACCEL_ADPCM_FILTEZ -DACCEL_ADPCM_FILTEZ_U3 -DACCEL_ADPCM_UPZERO
=== Step 1: Skipping legacy compile output for adpcm/adpcm ===

=== Step 2: Building C Simulator ===
Using test-local simulator: /home/pelps/Comp_Arc/risc_v_asip/scripts/../test/adpcm/computer.cpp
=== Step 1: Compiling adpcm/adpcm ===
Compiling /home/pelps/Comp_Arc/risc_v_asip/scripts/../test/adpcm/adpcm.c to RV32I...
Generating binary...
Generating hex file...
Generating disassembly...

Generated files:
  /home/pelps/Comp_Arc/risc_v_asip/scripts/../test/adpcm/accel_filtez_u3_upzero_base/iss/artifacts/adpcm.elf  - ELF executable
  /home/pelps/Comp_Arc/risc_v_asip/scripts/../test/adpcm/accel_filtez_u3_upzero_base/iss/artifacts/adpcm.bin  - Raw binary
  /home/pelps/Comp_Arc/risc_v_asip/scripts/../test/adpcm/accel_filtez_u3_upzero_base/iss/artifacts/adpcm.hex  - Hex file for simulator
  /home/pelps/Comp_Arc/risc_v_asip/scripts/../test/adpcm/accel_filtez_u3_upzero_base/iss/artifacts/adpcm.dis  - Disassembly

Run with: ../sim /home/pelps/Comp_Arc/risc_v_asip/scripts/../test/adpcm/accel_filtez_u3_upzero_base/iss/artifacts/adpcm.hex

=== Step 2: Building C Simulator ===
Built: /home/pelps/Comp_Arc/risc_v_asip/scripts/../test/adpcm/accel_filtez_u3_upzero_base/iss/artifacts/rv32i_sim

=== Step 3: Running C Simulation ===
Simulation finished (halt=1). Report in /home/pelps/Comp_Arc/risc_v_asip/scripts/../test/adpcm/accel_filtez_u3_upzero_base/iss/artifacts/adpcm.iss.rpt
Final PC: 0x00000034

=== Step 4: ISS Report (last 10 lines) — /home/pelps/Comp_Arc/risc_v_asip/scripts/../test/adpcm/accel_filtez_u3_upzero_base/iss/artifacts/adpcm.iss.rpt ===
Instr: 00008067
PC: 00000030 | x00: 00000000 x01: 00000030 x02: 00044000 x03: 00000000 x04: 00000000 x05: 00001cf5 x06: 00041000 x07: 00000000 
    x08: 00000000 x09: 00000000 x10: 00000000 x11: 00000064 x12: 0000018c x13: 00000039 x14: 00000000 x15: 00041000 
    x16: 00041000 x17: 00041000 x18: 00000000 x19: 00000000 x20: 00000000 x21: 00000000 x22: 00000000 x23: 00000000 
    x24: 00000000 x25: 00000000 x26: 00000000 x27: 00000000 x28: 00000000 x29: 00000000 x30: 00000000 x31: 00000000 
Instr: 00000073
PC: 00000034 | x00: 00000000 x01: 00000030 x02: 00044000 x03: 00000000 x04: 00000000 x05: 00001cf5 x06: 00041000 x07: 00000000 
    x08: 00000000 x09: 00000000 x10: 00000000 x11: 00000064 x12: 0000018c x13: 00000039 x14: 00000000 x15: 00041000 
    x16: 00041000 x17: 00041000 x18: 00000000 x19: 00000000 x20: 00000000 x21: 00000000 x22: 00000000 x23: 00000000 
    x24: 00000000 x25: 00000000 x26: 00000000 x27: 00000000 x28: 00000000 x29: 00000000 x30: 00000000 x31: 00000000 

=== Step 5: Building RTL Simulation (variant: accel_filtez_u3_upzero_base) ===
make: Entering directory '/home/pelps/Comp_Arc/risc_v_asip/sim/verilog'
verilator --binary --timing -Wno-fatal -Wno-lint --top-module tb_computer -o tb_computer_sim --Mdir /home/pelps/Comp_Arc/risc_v_asip/scripts/../test/adpcm/accel_filtez_u3_upzero_base/rtl/obj_dir -DPC_SIG=RG_PC /home/pelps/Comp_Arc/risc_v_asip/scripts/../rtl/adpcm/tb_computer_mem.sv /home/pelps/Comp_Arc/risc_v_asip/scripts/../test/adpcm/accel_filtez_u3_upzero_base/rtl/computer_E.v
make[1]: Entering directory '/home/pelps/Comp_Arc/risc_v_asip/test/adpcm/accel_filtez_u3_upzero_base/rtl/obj_dir'
g++ -Os  -I.  -MMD -I/usr/local/share/verilator/include -I/usr/local/share/verilator/include/vltstd -DVM_COVERAGE=0 -DVM_SC=0 -DVM_TIMING=1 -DVM_TRACE=0 -DVM_TRACE_FST=0 -DVM_TRACE_VCD=0 -faligned-new -fcf-protection=none -Wno-bool-operation -Wno-shadow -Wno-sign-compare -Wno-subobject-linkage -Wno-tautological-compare -Wno-uninitialized -Wno-unused-but-set-parameter -Wno-unused-but-set-variable -Wno-unused-parameter -Wno-unused-variable    -DVL_TIME_CONTEXT   -fcoroutines -c -o verilated.o /usr/local/share/verilator/include/verilated.cpp
g++ -Os  -I.  -MMD -I/usr/local/share/verilator/include -I/usr/local/share/verilator/include/vltstd -DVM_COVERAGE=0 -DVM_SC=0 -DVM_TIMING=1 -DVM_TRACE=0 -DVM_TRACE_FST=0 -DVM_TRACE_VCD=0 -faligned-new -fcf-protection=none -Wno-bool-operation -Wno-shadow -Wno-sign-compare -Wno-subobject-linkage -Wno-tautological-compare -Wno-uninitialized -Wno-unused-but-set-parameter -Wno-unused-but-set-variable -Wno-unused-parameter -Wno-unused-variable    -DVL_TIME_CONTEXT   -fcoroutines -c -o verilated_timing.o /usr/local/share/verilator/include/verilated_timing.cpp
g++ -Os  -I.  -MMD -I/usr/local/share/verilator/include -I/usr/local/share/verilator/include/vltstd -DVM_COVERAGE=0 -DVM_SC=0 -DVM_TIMING=1 -DVM_TRACE=0 -DVM_TRACE_FST=0 -DVM_TRACE_VCD=0 -faligned-new -fcf-protection=none -Wno-bool-operation -Wno-shadow -Wno-sign-compare -Wno-subobject-linkage -Wno-tautological-compare -Wno-uninitialized -Wno-unused-but-set-parameter -Wno-unused-but-set-variable -Wno-unused-parameter -Wno-unused-variable    -DVL_TIME_CONTEXT   -fcoroutines -c -o verilated_threads.o /usr/local/share/verilator/include/verilated_threads.cpp
g++ -Os  -I.  -MMD -I/usr/local/share/verilator/include -I/usr/local/share/verilator/include/vltstd -DVM_COVERAGE=0 -DVM_SC=0 -DVM_TIMING=1 -DVM_TRACE=0 -DVM_TRACE_FST=0 -DVM_TRACE_VCD=0 -faligned-new -fcf-protection=none -Wno-bool-operation -Wno-shadow -Wno-sign-compare -Wno-subobject-linkage -Wno-tautological-compare -Wno-uninitialized -Wno-unused-but-set-parameter -Wno-unused-but-set-variable -Wno-unused-parameter -Wno-unused-variable    -DVL_TIME_CONTEXT   -fcoroutines -x c++-header Vtb_computer__pch.h -o Vtb_computer__pch.h.fast.gch
g++ -Os  -I.  -MMD -I/usr/local/share/verilator/include -I/usr/local/share/verilator/include/vltstd -DVM_COVERAGE=0 -DVM_SC=0 -DVM_TIMING=1 -DVM_TRACE=0 -DVM_TRACE_FST=0 -DVM_TRACE_VCD=0 -faligned-new -fcf-protection=none -Wno-bool-operation -Wno-shadow -Wno-sign-compare -Wno-subobject-linkage -Wno-tautological-compare -Wno-uninitialized -Wno-unused-but-set-parameter -Wno-unused-but-set-variable -Wno-unused-parameter -Wno-unused-variable    -DVL_TIME_CONTEXT   -fcoroutines -include Vtb_computer__pch.h.fast -c -o Vtb_computer.o Vtb_computer.cpp
g++ -Os  -I.  -MMD -I/usr/local/share/verilator/include -I/usr/local/share/verilator/include/vltstd -DVM_COVERAGE=0 -DVM_SC=0 -DVM_TIMING=1 -DVM_TRACE=0 -DVM_TRACE_FST=0 -DVM_TRACE_VCD=0 -faligned-new -fcf-protection=none -Wno-bool-operation -Wno-shadow -Wno-sign-compare -Wno-subobject-linkage -Wno-tautological-compare -Wno-uninitialized -Wno-unused-but-set-parameter -Wno-unused-but-set-variable -Wno-unused-parameter -Wno-unused-variable    -DVL_TIME_CONTEXT   -fcoroutines -include Vtb_computer__pch.h.fast -c -o Vtb_computer___024root__DepSet_h0d7f90bf__0.o Vtb_computer___024root__DepSet_h0d7f90bf__0.cpp
g++ -Os  -I.  -MMD -I/usr/local/share/verilator/include -I/usr/local/share/verilator/include/vltstd -DVM_COVERAGE=0 -DVM_SC=0 -DVM_TIMING=1 -DVM_TRACE=0 -DVM_TRACE_FST=0 -DVM_TRACE_VCD=0 -faligned-new -fcf-protection=none -Wno-bool-operation -Wno-shadow -Wno-sign-compare -Wno-subobject-linkage -Wno-tautological-compare -Wno-uninitialized -Wno-unused-but-set-parameter -Wno-unused-but-set-variable -Wno-unused-parameter -Wno-unused-variable    -DVL_TIME_CONTEXT   -fcoroutines -include Vtb_computer__pch.h.fast -c -o Vtb_computer___024root__DepSet_hb2b282c6__0.o Vtb_computer___024root__DepSet_hb2b282c6__0.cpp
g++ -Os  -I.  -MMD -I/usr/local/share/verilator/include -I/usr/local/share/verilator/include/vltstd -DVM_COVERAGE=0 -DVM_SC=0 -DVM_TIMING=1 -DVM_TRACE=0 -DVM_TRACE_FST=0 -DVM_TRACE_VCD=0 -faligned-new -fcf-protection=none -Wno-bool-operation -Wno-shadow -Wno-sign-compare -Wno-subobject-linkage -Wno-tautological-compare -Wno-uninitialized -Wno-unused-but-set-parameter -Wno-unused-but-set-variable -Wno-unused-parameter -Wno-unused-variable    -DVL_TIME_CONTEXT   -fcoroutines -include Vtb_computer__pch.h.fast -c -o Vtb_computer___024root__DepSet_hb2b282c6__1.o Vtb_computer___024root__DepSet_hb2b282c6__1.cpp
g++ -Os  -I.  -MMD -I/usr/local/share/verilator/include -I/usr/local/share/verilator/include/vltstd -DVM_COVERAGE=0 -DVM_SC=0 -DVM_TIMING=1 -DVM_TRACE=0 -DVM_TRACE_FST=0 -DVM_TRACE_VCD=0 -faligned-new -fcf-protection=none -Wno-bool-operation -Wno-shadow -Wno-sign-compare -Wno-subobject-linkage -Wno-tautological-compare -Wno-uninitialized -Wno-unused-but-set-parameter -Wno-unused-but-set-variable -Wno-unused-parameter -Wno-unused-variable    -DVL_TIME_CONTEXT   -fcoroutines -include Vtb_computer__pch.h.fast -c -o Vtb_computer__main.o Vtb_computer__main.cpp
g++   -I.  -MMD -I/usr/local/share/verilator/include -I/usr/local/share/verilator/include/vltstd -DVM_COVERAGE=0 -DVM_SC=0 -DVM_TIMING=1 -DVM_TRACE=0 -DVM_TRACE_FST=0 -DVM_TRACE_VCD=0 -faligned-new -fcf-protection=none -Wno-bool-operation -Wno-shadow -Wno-sign-compare -Wno-subobject-linkage -Wno-tautological-compare -Wno-uninitialized -Wno-unused-but-set-parameter -Wno-unused-but-set-variable -Wno-unused-parameter -Wno-unused-variable    -DVL_TIME_CONTEXT   -fcoroutines -x c++-header Vtb_computer__pch.h -o Vtb_computer__pch.h.slow.gch
g++   -I.  -MMD -I/usr/local/share/verilator/include -I/usr/local/share/verilator/include/vltstd -DVM_COVERAGE=0 -DVM_SC=0 -DVM_TIMING=1 -DVM_TRACE=0 -DVM_TRACE_FST=0 -DVM_TRACE_VCD=0 -faligned-new -fcf-protection=none -Wno-bool-operation -Wno-shadow -Wno-sign-compare -Wno-subobject-linkage -Wno-tautological-compare -Wno-uninitialized -Wno-unused-but-set-parameter -Wno-unused-but-set-variable -Wno-unused-parameter -Wno-unused-variable    -DVL_TIME_CONTEXT   -fcoroutines -include Vtb_computer__pch.h.slow -c -o Vtb_computer___024root__Slow.o Vtb_computer___024root__Slow.cpp
g++   -I.  -MMD -I/usr/local/share/verilator/include -I/usr/local/share/verilator/include/vltstd -DVM_COVERAGE=0 -DVM_SC=0 -DVM_TIMING=1 -DVM_TRACE=0 -DVM_TRACE_FST=0 -DVM_TRACE_VCD=0 -faligned-new -fcf-protection=none -Wno-bool-operation -Wno-shadow -Wno-sign-compare -Wno-subobject-linkage -Wno-tautological-compare -Wno-uninitialized -Wno-unused-but-set-parameter -Wno-unused-but-set-variable -Wno-unused-parameter -Wno-unused-variable    -DVL_TIME_CONTEXT   -fcoroutines -include Vtb_computer__pch.h.slow -c -o Vtb_computer___024root__DepSet_h0d7f90bf__0__Slow.o Vtb_computer___024root__DepSet_h0d7f90bf__0__Slow.cpp
g++   -I.  -MMD -I/usr/local/share/verilator/include -I/usr/local/share/verilator/include/vltstd -DVM_COVERAGE=0 -DVM_SC=0 -DVM_TIMING=1 -DVM_TRACE=0 -DVM_TRACE_FST=0 -DVM_TRACE_VCD=0 -faligned-new -fcf-protection=none -Wno-bool-operation -Wno-shadow -Wno-sign-compare -Wno-subobject-linkage -Wno-tautological-compare -Wno-uninitialized -Wno-unused-but-set-parameter -Wno-unused-but-set-variable -Wno-unused-parameter -Wno-unused-variable    -DVL_TIME_CONTEXT   -fcoroutines -include Vtb_computer__pch.h.slow -c -o Vtb_computer___024root__DepSet_hb2b282c6__0__Slow.o Vtb_computer___024root__DepSet_hb2b282c6__0__Slow.cpp
g++   -I.  -MMD -I/usr/local/share/verilator/include -I/usr/local/share/verilator/include/vltstd -DVM_COVERAGE=0 -DVM_SC=0 -DVM_TIMING=1 -DVM_TRACE=0 -DVM_TRACE_FST=0 -DVM_TRACE_VCD=0 -faligned-new -fcf-protection=none -Wno-bool-operation -Wno-shadow -Wno-sign-compare -Wno-subobject-linkage -Wno-tautological-compare -Wno-uninitialized -Wno-unused-but-set-parameter -Wno-unused-but-set-variable -Wno-unused-parameter -Wno-unused-variable    -DVL_TIME_CONTEXT   -fcoroutines -include Vtb_computer__pch.h.slow -c -o Vtb_computer__Syms.o Vtb_computer__Syms.cpp
echo "" > Vtb_computer__ALL.verilator_deplist.tmp
g++    verilated.o verilated_timing.o verilated_threads.o Vtb_computer__ALL.a    -pthread -lpthread -latomic   -o tb_computer_sim
rm Vtb_computer__ALL.verilator_deplist.tmp
make[1]: Leaving directory '/home/pelps/Comp_Arc/risc_v_asip/test/adpcm/accel_filtez_u3_upzero_base/rtl/obj_dir'
- V e r i l a t i o n   R e p o r t: Verilator 5.033 devel rev v5.032-61-ge0e164cea
- Verilator: Built from 0.169 MB sources in 22 modules, into 0.970 MB in 9 C++ files needing 0.002 MB
- Verilator: Walltime 48.277 s (elab=0.063, cvt=0.441, bld=47.537); cpu 0.722 s on 1 threads; alloced 20.656 MB
make: Leaving directory '/home/pelps/Comp_Arc/risc_v_asip/sim/verilog'

=== Step 6: Running RTL Simulation ===
make: Entering directory '/home/pelps/Comp_Arc/risc_v_asip/sim/verilog'
/home/pelps/Comp_Arc/risc_v_asip/scripts/../test/adpcm/accel_filtez_u3_upzero_base/rtl/obj_dir/tb_computer_sim +HEX_FILE=/home/pelps/Comp_Arc/risc_v_asip/test/adpcm/accel_filtez_u3_upzero_base/iss/artifacts/adpcm.hex +RPT_FILE=/home/pelps/Comp_Arc/risc_v_asip/test/adpcm/accel_filtez_u3_upzero_base/rtl/sim_rtl.rpt 
Loaded hex: /home/pelps/Comp_Arc/risc_v_asip/test/adpcm/accel_filtez_u3_upzero_base/iss/artifacts/adpcm.hex
  First 6 imem words:
    imem[0] = 0x00044137
    imem[1] = 0x00010113
    imem[2] = 0x00041537
    imem[3] = 0x8a050513
    imem[4] = 0x000415b7
    imem[5] = 0xd3858593

=== RTL Simulation Start ===

=== RTL Simulation Complete ===
  Total cycles: 8169618
  Status: HALTED (computer_ret = 1)

=== Register Dump ===
  x00: 00000000 x01: 00000030 x02: 00044000 x03: 00000000 x04: 00000000 x05: 00001cf5 x06: 00041000 x07: 00000000 
  x08: 00000000 x09: 00000000 x10: 00000000 x11: 00000064 x12: 0000018c x13: 00000039 x14: 00000000 x15: 00041000 
  x16: 00041000 x17: 00041000 x18: 00000000 x19: 00000000 x20: 00000000 x21: 00000000 x22: 00000000 x23: 00000000 
  x24: 00000000 x25: 00000000 x26: 00000000 x27: 00000000 x28: 00000000 x29: 00000000 x30: 00000000 x31: 00000000 

=== DMEM Dump (first 8 words) ===
  dmem[0] = 0x0000000c
  dmem[1] = 0xffffffd4
  dmem[2] = 0xffffffd4
  dmem[3] = 0x000000d4
  dmem[4] = 0x00000030
  dmem[5] = 0xfffffd90
  dmem[6] = 0x00000080
  dmem[7] = 0x000005a8

Report written to: /home/pelps/Comp_Arc/risc_v_asip/test/adpcm/accel_filtez_u3_upzero_base/rtl/sim_rtl.rpt

=== Done ===
- /home/pelps/Comp_Arc/risc_v_asip/scripts/../rtl/adpcm/tb_computer_mem.sv:252: Verilog $finish
- S i m u l a t i o n   R e p o r t: Verilator 5.033 devel
- Verilator: $finish at 82ms; walltime 29.666 s; speed 2.764 ms/s
- Verilator: cpu 29.555 s on 1 threads; alloced 90 MB
make: Leaving directory '/home/pelps/Comp_Arc/risc_v_asip/sim/verilog'
CPI = 6.2

=== Step 7: ISS vs RTL Comparison ===
  ISS x10 = 00000000
  RTL x10 = 00000000
  Result  = PASS (both return 0)
